table row 0.9743612408638 15 209 463 225
table row 0.9653879404067993 16 286 463 300
table spanning cell 0.999758780002594 151 35 459 50
table row 0.9840318560600281 14 87 462 103
table row 0.9779627919197083 15 177 463 193
table row 0.9673221707344055 15 192 463 208
table row 0.9861895442008972 15 118 463 133
table projected row header 0.7997633218765259 14 69 462 86
table row 0.9827808141708374 15 69 463 87
table row 0.9991322159767151 15 50 463 70
table projected row header 0.9478480815887451 14 166 463 182
table row 0.9859219193458557 15 102 463 118
table column 0.9990918636322021 15 35 148 310
table row 0.9808136820793152 15 226 463 242
table row 0.9166944026947021 15 271 462 287
table row 0.9992048144340515 15 35 463 50
table column 0.9999707937240601 153 35 335 311
table column 0.9975336790084839 336 35 460 310
table row 0.9147251844406128 16 299 463 311
table column header 0.9908921122550964 15 35 462 69
table row 0.9780660271644592 15 133 463 149
table row 0.8700151443481445 15 160 463 177
table row 0.9522280097007751 15 256 463 271
table spanning cell 0.9289082288742065 15 35 148 70
table row 0.9768175482749939 15 148 462 166
table row 0.9855566620826721 15 242 463 258
table 0.9999949932098389 15 35 463 310
