{"train_lr": 4.9999999999995e-05, "train_class_error": 3.181663783864597, "train_loss": 0.2516644819601787, "train_loss_ce": 0.04047643938841185, "train_loss_bbox": 0.09958548298375791, "train_loss_giou": 0.11160255953757738, "train_loss_ce_unscaled": 0.04047643938841185, "train_class_error_unscaled": 3.181663783864597, "train_loss_bbox_unscaled": 0.019917096594242564, "train_loss_giou_unscaled": 0.05580127976878869, "train_cardinality_error_unscaled": 0.10496039085136552, "test_class_error": 3.4186697783763713, "test_loss": 0.23059169226184, "test_loss_ce": 0.04108240633857004, "test_loss_bbox": 0.0808410429030541, "test_loss_giou": 0.10866824320878542, "test_loss_ce_unscaled": 0.04108240633857004, "test_class_error_unscaled": 3.4186697783763713, "test_loss_bbox_unscaled": 0.016168208563203407, "test_loss_giou_unscaled": 0.05433412160439271, "test_cardinality_error_unscaled": 0.1100942872989462, "test_coco_eval_bbox": [0.706379454510904, 0.7499919745611576, 0.7410676029031426, 0.0, 0.7374123703812868, 0.711996256433142, 0.7197562510039085, 0.8343156020774215, 0.8359820902714569, 0.0, 0.8067778375470682, 0.839949045753108], "epoch": 0}
{"train_lr": 4.499999999999248e-05, "train_class_error": 2.6942143086021333, "train_loss": 0.2089747406988298, "train_loss_ce": 0.034906443019802356, "train_loss_bbox": 0.07997866768028687, "train_loss_giou": 0.09408962996625465, "train_loss_ce_unscaled": 0.034906443019802356, "train_class_error_unscaled": 2.6942143086021333, "train_loss_bbox_unscaled": 0.01599573353528802, "train_loss_giou_unscaled": 0.04704481498312733, "train_cardinality_error_unscaled": 0.09800952469021638, "test_class_error": 3.0388323635243073, "test_loss": 0.2200700872088563, "test_loss_ce": 0.03919028950176789, "test_loss_bbox": 0.07593593410878993, "test_loss_giou": 0.10494386385330808, "test_loss_ce_unscaled": 0.03919028950176789, "test_class_error_unscaled": 3.0388323635243073, "test_loss_bbox_unscaled": 0.0151871868346715, "test_loss_giou_unscaled": 0.05247193192665404, "test_cardinality_error_unscaled": 0.1072171381031614, "test_coco_eval_bbox": [0.7016073888508371, 0.7369382888872404, 0.7271915514198092, 0.0, 0.7412681752208575, 0.7068362738035454, 0.7326551373346898, 0.8469815816244578, 0.8487257054130749, 0.0, 0.8212479827864444, 0.8523264172751107], "epoch": 1}
{"train_lr": 4.0499999999998904e-05, "train_class_error": 2.4556959432191907, "train_loss": 0.1930551764280087, "train_loss_ce": 0.03261211800565714, "train_loss_bbox": 0.07356409518837388, "train_loss_giou": 0.08687896314046363, "train_loss_ce_unscaled": 0.03261211800565714, "train_class_error_unscaled": 2.4556959432191907, "train_loss_bbox_unscaled": 0.01471281904271578, "train_loss_giou_unscaled": 0.043439481570231815, "train_cardinality_error_unscaled": 0.09289270081992479, "test_class_error": 2.1657625432154632, "test_loss": 0.20008650763013003, "test_loss_ce": 0.03531423844553967, "test_loss_bbox": 0.06768451280854704, "test_loss_giou": 0.09708775646253155, "test_loss_ce_unscaled": 0.03531423844553967, "test_class_error_unscaled": 2.1657625432154632, "test_loss_bbox_unscaled": 0.01353690256682316, "test_loss_giou_unscaled": 0.048543878231265776, "test_cardinality_error_unscaled": 0.11022139028648635, "test_coco_eval_bbox": [0.7443537990628563, 0.7779079167390972, 0.7705245783741879, 0.0, 0.7731107288037977, 0.7491522574784272, 0.7855932430261818, 0.9010226481769023, 0.9017802644964394, 0.0, 0.8376008606777839, 0.9051144532461308], "epoch": 2}
{"train_lr": 3.645000000000162e-05, "train_class_error": 2.2898260165610154, "train_loss": 0.18188329514514048, "train_loss_ce": 0.030851710823123744, "train_loss_bbox": 0.06905323593832989, "train_loss_giou": 0.0819783483432508, "train_loss_ce_unscaled": 0.030851710823123744, "train_class_error_unscaled": 2.2898260165610154, "train_loss_bbox_unscaled": 0.013810647193499304, "train_loss_giou_unscaled": 0.0409891741716254, "train_cardinality_error_unscaled": 0.0902996116145737, "test_class_error": 2.0936732934834357, "test_loss": 0.19372492410858275, "test_loss_ce": 0.03396670172571356, "test_loss_bbox": 0.06652012696005177, "test_loss_giou": 0.09323809537943607, "test_loss_ce_unscaled": 0.03396670172571356, "test_class_error_unscaled": 2.0936732934834357, "test_loss_bbox_unscaled": 0.013304025381059695, "test_loss_giou_unscaled": 0.046619047689718036, "test_cardinality_error_unscaled": 0.10773710482529118, "test_coco_eval_bbox": [0.7390042907109027, 0.7699920178362368, 0.7629833972049139, 0.0, 0.7653865280721517, 0.7439301255564483, 0.7929676206028806, 0.9071615489639664, 0.9078120817047706, 0.0, 0.8265734265734267, 0.9114236532010261], "epoch": 3}
{"train_lr": 3.280500000001178e-05, "train_class_error": 2.1780518207911035, "train_loss": 0.17282807175868112, "train_loss_ce": 0.02947132926095446, "train_loss_bbox": 0.06547182625556126, "train_loss_giou": 0.07788491620292966, "train_loss_ce_unscaled": 0.02947132926095446, "train_class_error_unscaled": 2.1780518207911035, "train_loss_bbox_unscaled": 0.013094365253087317, "train_loss_giou_unscaled": 0.03894245810146483, "train_cardinality_error_unscaled": 0.08636566796128475, "test_class_error": 2.1092361517899314, "test_loss": 0.20255242135010026, "test_loss_ce": 0.032973601110624993, "test_loss_bbox": 0.06552414649800994, "test_loss_giou": 0.10405467372621124, "test_loss_ce_unscaled": 0.032973601110624993, "test_class_error_unscaled": 2.1092361517899314, "test_loss_bbox_unscaled": 0.013104829307298444, "test_loss_giou_unscaled": 0.05202733686310562, "test_cardinality_error_unscaled": 0.10162460714727392, "test_coco_eval_bbox": [0.6969007174520694, 0.7382045948629761, 0.7273938948598252, 0.0, 0.7219121928685804, 0.7027686057520448, 0.809336349520801, 0.9289624270493121, 0.9299355490710498, 0.0, 0.8068854222700376, 0.9339104741634483], "epoch": 4}
{"train_lr": 2.952449999999226e-05, "train_class_error": 2.105388040262162, "train_loss": 0.16735501808483125, "train_loss_ce": 0.02861103746399085, "train_loss_bbox": 0.06329001013572395, "train_loss_giou": 0.07545397046451177, "train_loss_ce_unscaled": 0.02861103746399085, "train_class_error_unscaled": 2.105388040262162, "train_loss_bbox_unscaled": 0.012658002031709253, "train_loss_giou_unscaled": 0.037726985232255886, "train_cardinality_error_unscaled": 0.08472813020159053, "test_class_error": 2.119393565029286, "test_loss": 0.19196824993291497, "test_loss_ce": 0.03131367542611252, "test_loss_bbox": 0.061472076666451006, "test_loss_giou": 0.09918249802301311, "test_loss_ce_unscaled": 0.03131367542611252, "test_class_error_unscaled": 2.119393565029286, "test_loss_bbox_unscaled": 0.012294415328873778, "test_loss_giou_unscaled": 0.04959124901150656, "test_cardinality_error_unscaled": 0.0959049732038463, "test_coco_eval_bbox": [0.8855084417835858, 0.9262313623939259, 0.918117824331263, 0.0, 0.7390721490059438, 0.8904631957586767, 0.7937774401670503, 0.9056570246827651, 0.9063436981313917, 0.0, 0.822270037654653, 0.9099901685789191], "epoch": 5}
{"train_lr": 2.6572050000005617e-05, "train_class_error": 2.054797237041839, "train_loss": 0.16067513836461955, "train_loss_ce": 0.02737391709849693, "train_loss_bbox": 0.06066839871003146, "train_loss_giou": 0.07263282254472844, "train_loss_ce_unscaled": 0.02737391709849693, "train_class_error_unscaled": 2.054797237041839, "train_loss_bbox_unscaled": 0.012133679747828136, "train_loss_giou_unscaled": 0.03631641127236422, "train_cardinality_error_unscaled": 0.08205798039578324, "test_class_error": 1.9533198690387983, "test_loss": 0.1882295950594308, "test_loss_ce": 0.030237910745861588, "test_loss_bbox": 0.0625108857073522, "test_loss_giou": 0.09548079873178479, "test_loss_ce_unscaled": 0.030237910745861588, "test_class_error_unscaled": 1.9533198690387983, "test_loss_bbox_unscaled": 0.012502177145163705, "test_loss_giou_unscaled": 0.047740399365892396, "test_cardinality_error_unscaled": 0.09221898687923874, "test_coco_eval_bbox": [0.8747951594134366, 0.9192049272473459, 0.9125631736597729, 0.00495049504950495, 0.7483583484525337, 0.8798937234493514, 0.7940170396744659, 0.9070504497510308, 0.9076220083525192, 0.004347826086956522, 0.8204948897256589, 0.9113813675189582], "epoch": 6}
{"train_lr": 2.3914844999990533e-05, "train_class_error": 1.9200523592351169, "train_loss": 0.15566655357077944, "train_loss_ce": 0.02622443250136753, "train_loss_bbox": 0.05907774374757538, "train_loss_giou": 0.07036437733672667, "train_loss_ce_unscaled": 0.02622443250136753, "train_class_error_unscaled": 1.9200523592351169, "train_loss_bbox_unscaled": 0.011815548751828884, "train_loss_giou_unscaled": 0.03518218866836333, "train_cardinality_error_unscaled": 0.07883684729671414, "test_class_error": 1.829082971404674, "test_loss": 0.17992123234572838, "test_loss_ce": 0.0295018399198862, "test_loss_bbox": 0.05859145896919423, "test_loss_giou": 0.0918279335344922, "test_loss_ce_unscaled": 0.0295018399198862, "test_class_error_unscaled": 1.829082971404674, "test_loss_bbox_unscaled": 0.011718291797945342, "test_loss_giou_unscaled": 0.0459139667672461, "test_cardinality_error_unscaled": 0.09187234239781888, "test_coco_eval_bbox": [0.8817713961129879, 0.9192991268587827, 0.9131014534859186, 0.0, 0.768713547525459, 0.886660181704203, 0.7955081785083257, 0.908376947582588, 0.9088681935000269, 0.0, 0.8424959655728887, 0.9121185479096777], "epoch": 7}
{"train_lr": 2.1523360499991455e-05, "train_class_error": 1.8538671131015272, "train_loss": 0.15064656786139713, "train_loss_ce": 0.025514185075524845, "train_loss_bbox": 0.057017757939886136, "train_loss_giou": 0.06811462489180839, "train_loss_ce_unscaled": 0.025514185075524845, "train_class_error_unscaled": 1.8538671131015272, "train_loss_bbox_unscaled": 0.011403551592768478, "train_loss_giou_unscaled": 0.034057312445904195, "train_cardinality_error_unscaled": 0.07751911102891314, "test_class_error": 1.9474340894786901, "test_loss": 0.1646320893844002, "test_loss_ce": 0.02931438045985993, "test_loss_bbox": 0.05571837088943387, "test_loss_giou": 0.07959933801803633, "test_loss_ce_unscaled": 0.02931438045985993, "test_class_error_unscaled": 1.9474340894786901, "test_loss_bbox_unscaled": 0.011143674174555088, "test_loss_giou_unscaled": 0.039799669009018164, "test_cardinality_error_unscaled": 0.08812858199848443, "test_coco_eval_bbox": [0.8730368074933496, 0.9136088156152029, 0.9076191762735707, 0.00495049504950495, 0.8057725702287156, 0.8769539518778087, 0.7921507736788562, 0.9067676821759385, 0.9072013706698078, 0.004347826086956522, 0.8649811726734805, 0.9101041637301609], "epoch": 8}
{"train_lr": 4.9999999999995496e-05, "train_class_error": 2.0620205852165174, "train_loss": 0.16160845236276286, "train_loss_ce": 0.026969811376624908, "train_loss_bbox": 0.060937791198041893, "train_loss_giou": 0.07370084980284536, "train_loss_ce_unscaled": 0.026969811376624908, "train_class_error_unscaled": 2.0620205852165174, "train_loss_bbox_unscaled": 0.012187558236737471, "train_loss_giou_unscaled": 0.03685042490142268, "train_cardinality_error_unscaled": 0.07974722564734896, "test_class_error": 2.150690095651969, "test_loss": 0.19100629302059732, "test_loss_ce": 0.032405207530568775, "test_loss_bbox": 0.06375059626476133, "test_loss_giou": 0.09485048921716847, "test_loss_ce_unscaled": 0.032405207530568775, "test_class_error_unscaled": 2.150690095651969, "test_loss_bbox_unscaled": 0.01275011923983941, "test_loss_giou_unscaled": 0.04742524460858424, "test_cardinality_error_unscaled": 0.0981037509348863, "test_coco_eval_bbox": [0.8763278588514577, 0.9128672652719713, 0.906403720301558, 0.0, 0.7784275373898738, 0.8807480201567939, 0.7955403035819457, 0.9072365074690797, 0.9079860925202119, 0.0, 0.8340505648197956, 0.9114109674964057], "epoch": 0}
{"train_lr": 4.5000000000002686e-05, "train_class_error": 1.9592366003372814, "train_loss": 0.15742022849610202, "train_loss_ce": 0.02629075762937787, "train_loss_bbox": 0.05936189387039581, "train_loss_giou": 0.07176757691113414, "train_loss_ce_unscaled": 0.02629075762937787, "train_class_error_unscaled": 1.9592366003372814, "train_loss_bbox_unscaled": 0.011872378775893576, "train_loss_giou_unscaled": 0.03588378845556707, "train_cardinality_error_unscaled": 0.07906134401972872, "test_class_error": 2.3139016897873974, "test_loss": 0.18270799874466434, "test_loss_ce": 0.030528282337024922, "test_loss_bbox": 0.0599705153258472, "test_loss_giou": 0.0922092007712653, "test_loss_ce_unscaled": 0.030528282337024922, "test_class_error_unscaled": 2.3139016897873974, "test_loss_bbox_unscaled": 0.01199410306527269, "test_loss_giou_unscaled": 0.04610460038563265, "test_cardinality_error_unscaled": 0.0861280487804878, "test_coco_eval_bbox": [0.8868751608252389, 0.9266525280954664, 0.9204113035589588, 0.0, 0.7856395918208882, 0.890962952318695, 0.7964906703432029, 0.9095936847459442, 0.9103861032285698, 0.0, 0.848789671866595, 0.9135520325317849], "epoch": 1}
{"train_lr": 4.049999999999894e-05, "train_class_error": 1.924257910148724, "train_loss": 0.15322497526480003, "train_loss_ce": 0.025805872421968343, "train_loss_bbox": 0.057528119046199706, "train_loss_giou": 0.06989098372358173, "train_loss_ce_unscaled": 0.025805872421968343, "train_class_error_unscaled": 1.924257910148724, "train_loss_bbox_unscaled": 0.011505623807459979, "train_loss_giou_unscaled": 0.03494549186179086, "train_cardinality_error_unscaled": 0.0781943588162762, "test_class_error": 1.7084346991156263, "test_loss": 0.18616698071063226, "test_loss_ce": 0.02923532084246582, "test_loss_bbox": 0.06048355447520768, "test_loss_giou": 0.0964481055389619, "test_loss_ce_unscaled": 0.02923532084246582, "test_class_error_unscaled": 1.7084346991156263, "test_loss_bbox_unscaled": 0.012096710894680158, "test_loss_giou_unscaled": 0.04822405276948095, "test_cardinality_error_unscaled": 0.0948240022172949, "test_coco_eval_bbox": [0.8755187903312943, 0.9267769886223347, 0.920399304169273, 0.0, 0.7537323633508705, 0.8807077278527045, 0.788392140065321, 0.9001766879049098, 0.9006076993093108, 0.0, 0.8192038730500268, 0.9043617681053195], "epoch": 2}
{"train_lr": 3.644999999999917e-05, "train_class_error": 1.9179152953198453, "train_loss": 0.14931326773748005, "train_loss_ce": 0.025549188312784736, "train_loss_bbox": 0.05596775440533638, "train_loss_giou": 0.06779632502925638, "train_loss_ce_unscaled": 0.025549188312784736, "train_class_error_unscaled": 1.9179152953198453, "train_loss_bbox_unscaled": 0.011193550874464187, "train_loss_giou_unscaled": 0.03389816251462819, "train_cardinality_error_unscaled": 0.07771270036991369, "test_class_error": 1.9520070103478273, "test_loss": 0.1831062885616677, "test_loss_ce": 0.029450843485448863, "test_loss_bbox": 0.05896529262088355, "test_loss_giou": 0.09469015233656454, "test_loss_ce_unscaled": 0.029450843485448863, "test_class_error_unscaled": 1.9520070103478273, "test_loss_bbox_unscaled": 0.011793058526138475, "test_loss_giou_unscaled": 0.04734507616828227, "test_cardinality_error_unscaled": 0.09023928308566236, "test_coco_eval_bbox": [0.877817428373032, 0.9269318860583574, 0.9206031436181005, 0.0, 0.751315539052702, 0.8824873222917418, 0.7883533222680301, 0.9010413878031803, 0.9014697221181132, 0.0, 0.8200645508337816, 0.9052469483832775], "epoch": 3}
{"train_lr": 3.2804999999998945e-05, "train_class_error": 1.8219113642719613, "train_loss": 0.14497660404454765, "train_loss_ce": 0.024587326876990813, "train_loss_bbox": 0.054329393493326245, "train_loss_giou": 0.06605988372066753, "train_loss_ce_unscaled": 0.024587326876990813, "train_class_error_unscaled": 1.8219113642719613, "train_loss_bbox_unscaled": 0.01086587869693122, "train_loss_giou_unscaled": 0.03302994186033376, "train_cardinality_error_unscaled": 0.07436806411837238, "test_class_error": 1.790145941689908, "test_loss": 0.18210125723213552, "test_loss_ce": 0.028243649413253174, "test_loss_bbox": 0.058642158838207864, "test_loss_giou": 0.09521544876068566, "test_loss_ce_unscaled": 0.028243649413253174, "test_class_error_unscaled": 1.790145941689908, "test_loss_bbox_unscaled": 0.011728431764647298, "test_loss_giou_unscaled": 0.04760772438034283, "test_cardinality_error_unscaled": 0.09207548042490847, "test_coco_eval_bbox": [0.877329471053009, 0.9271256662561009, 0.9207717651959598, 0.0, 0.7595845831776153, 0.8820492379629747, 0.7897065909942711, 0.9009543823954596, 0.9016397172993523, 0.0, 0.8284561592253901, 0.9052060722239451], "epoch": 4}
{"train_lr": 2.9524499999995668e-05, "train_class_error": 1.7625107281893013, "train_loss": 0.14182905258769318, "train_loss_ce": 0.024202234209681667, "train_loss_bbox": 0.05327389598370481, "train_loss_giou": 0.06435292237214331, "train_loss_ce_unscaled": 0.024202234209681667, "train_class_error_unscaled": 1.7625107281893013, "train_loss_bbox_unscaled": 0.010654779191389588, "train_loss_giou_unscaled": 0.032176461186071655, "train_cardinality_error_unscaled": 0.07432567817509247, "test_class_error": 1.8207146249166348, "test_loss": 0.16152932149194957, "test_loss_ce": 0.028973570924359135, "test_loss_bbox": 0.05399295371314903, "test_loss_giou": 0.07856279685721627, "test_loss_ce_unscaled": 0.028973570924359135, "test_class_error_unscaled": 1.8207146249166348, "test_loss_bbox_unscaled": 0.010798590757497928, "test_loss_giou_unscaled": 0.03928139842860814, "test_cardinality_error_unscaled": 0.0915788987490396, "test_coco_eval_bbox": [0.893903306705488, 0.9271718892574229, 0.9213311343346909, 0.00891089108910891, 0.8196467794234665, 0.8972745178630386, 0.7988424934411308, 0.9135477458906676, 0.9140389918081062, 0.008695652173913044, 0.8739644970414201, 0.9167361443915091], "epoch": 5}
{"train_lr": 2.6572050000004614e-05, "train_class_error": 1.7097785262967449, "train_loss": 0.13866880131166534, "train_loss_ce": 0.023498733350791067, "train_loss_bbox": 0.05210096505591152, "train_loss_giou": 0.06306910284010535, "train_loss_ce_unscaled": 0.023498733350791067, "train_class_error_unscaled": 1.7097785262967449, "train_loss_bbox_unscaled": 0.01042019300617544, "train_loss_giou_unscaled": 0.031534551420052674, "train_cardinality_error_unscaled": 0.07313887176325524, "test_class_error": 1.6521296406003694, "test_loss": 0.18047522589514764, "test_loss_ce": 0.027993189079611885, "test_loss_bbox": 0.05785446840352864, "test_loss_giou": 0.09462756850857891, "test_loss_ce_unscaled": 0.027993189079611885, "test_class_error_unscaled": 1.6521296406003694, "test_loss_bbox_unscaled": 0.011570893691650317, "test_loss_giou_unscaled": 0.047313784254289455, "test_cardinality_error_unscaled": 0.0931148374093874, "test_coco_eval_bbox": [0.8763407772990492, 0.9272308216198811, 0.9206967768914595, 0.00891089108910891, 0.7372291816277611, 0.8818090711745622, 0.7876479091931252, 0.9005434491620712, 0.9012796487658618, 0.008695652173913044, 0.8171597633136095, 0.9051200913370732], "epoch": 6}
{"train_lr": 2.3914845000000396e-05, "train_class_error": 1.70531323546987, "train_loss": 0.136739937441582, "train_loss_ce": 0.02326671649374179, "train_loss_bbox": 0.051505649275159056, "train_loss_giou": 0.06196757165620933, "train_loss_ce_unscaled": 0.02326671649374179, "train_class_error_unscaled": 1.70531323546987, "train_loss_bbox_unscaled": 0.010301129857041447, "train_loss_giou_unscaled": 0.030983785828104665, "train_cardinality_error_unscaled": 0.07243757706535142, "test_class_error": 1.792812546182366, "test_loss": 0.1618161768695864, "test_loss_ce": 0.027389776064565677, "test_loss_bbox": 0.053258878238780005, "test_loss_giou": 0.08116752295310871, "test_loss_ce_unscaled": 0.027389776064565677, "test_class_error_unscaled": 1.792812546182366, "test_loss_bbox_unscaled": 0.010651775629325726, "test_loss_giou_unscaled": 0.040583761476554354, "test_cardinality_error_unscaled": 0.08527346637653406, "test_coco_eval_bbox": [0.8931908580690328, 0.9287145100482772, 0.9227353297482017, 0.00495049504950495, 0.8099715232375094, 0.8971131072203864, 0.8613719414252824, 0.9753262702789527, 0.9759848342881619, 0.004347826086956522, 0.862937062937063, 0.9789556493671243], "epoch": 7}
{"train_lr": 2.1523360499996415e-05, "train_class_error": 1.6807879672538484, "train_loss": 0.13493874444547035, "train_loss_ce": 0.023067351559515233, "train_loss_bbox": 0.05066034433543315, "train_loss_giou": 0.06121104857396293, "train_loss_ce_unscaled": 0.023067351559515233, "train_class_error_unscaled": 1.6807879672538484, "train_loss_bbox_unscaled": 0.010132068860012711, "train_loss_giou_unscaled": 0.030605524286981465, "train_cardinality_error_unscaled": 0.07237977805178791, "test_class_error": 1.5750563382573772, "test_loss": 0.16753456389692564, "test_loss_ce": 0.02741305136761384, "test_loss_bbox": 0.054870372419214566, "test_loss_giou": 0.08525114005303502, "test_loss_ce_unscaled": 0.02741305136761384, "test_class_error_unscaled": 1.5750563382573772, "test_loss_bbox_unscaled": 0.01097407446866504, "test_loss_giou_unscaled": 0.04262557002651751, "test_cardinality_error_unscaled": 0.09100147820761358, "test_coco_eval_bbox": [0.8818501461464873, 0.927270297263463, 0.9213421086201651, 0.00495049504950495, 0.7940778943991482, 0.8857807295162976, 0.785135126090914, 0.9049807249558279, 0.9054090592707608, 0.004347826086956522, 0.8485745024206564, 0.9086467172215487], "epoch": 8}
{"train_lr": 1.937102444999871e-05, "train_class_error": 1.6194067572841808, "train_loss": 0.132793395834, "train_loss_ce": 0.0226353289516707, "train_loss_bbox": 0.049942177535940775, "train_loss_giou": 0.060215889311794064, "train_loss_ce_unscaled": 0.0226353289516707, "train_class_error_unscaled": 1.6194067572841808, "train_loss_bbox_unscaled": 0.009988435508991086, "train_loss_giou_unscaled": 0.030107944655897032, "train_cardinality_error_unscaled": 0.07112746609124537, "test_class_error": 1.7485762805473515, "test_loss": 0.16983425077009623, "test_loss_ce": 0.027614581125470637, "test_loss_bbox": 0.05461564451092627, "test_loss_giou": 0.08760402516612655, "test_loss_ce_unscaled": 0.027614581125470637, "test_class_error_unscaled": 1.7485762805473515, "test_loss_bbox_unscaled": 0.010923128890517908, "test_loss_giou_unscaled": 0.04380201258306327, "test_cardinality_error_unscaled": 0.0895117331965271, "test_coco_eval_bbox": [0.8944248295141769, 0.9277183880102794, 0.921690129444892, 0.00891089108910891, 0.7911890507843264, 0.8985728027471821, 0.8162070996412701, 0.9601331182738126, 0.9605587754992773, 0.008695652173913044, 0.8484669176976869, 0.9637507752375045], "epoch": 9}
{"train_lr": 1.743392200499971e-05, "train_class_error": 1.5700187664290686, "train_loss": 0.13040753595080828, "train_loss_ce": 0.022253316425108728, "train_loss_bbox": 0.04906755861161339, "train_loss_giou": 0.05908666095856012, "train_loss_ce_unscaled": 0.022253316425108728, "train_class_error_unscaled": 1.5700187664290686, "train_loss_bbox_unscaled": 0.009813511722667187, "train_loss_giou_unscaled": 0.02954333047928006, "train_cardinality_error_unscaled": 0.07003313810110974, "test_class_error": 1.7475380527470963, "test_loss": 0.16786192530588537, "test_loss_ce": 0.027663046221124647, "test_loss_bbox": 0.05350495967187995, "test_loss_giou": 0.08669391970362869, "test_loss_ce_unscaled": 0.027663046221124647, "test_class_error_unscaled": 1.7475380527470963, "test_loss_bbox_unscaled": 0.01070099192704518, "test_loss_giou_unscaled": 0.043346959851814346, "test_cardinality_error_unscaled": 0.08580469328521889, "test_coco_eval_bbox": [0.8825786142670827, 0.9277542895950013, 0.9216612653757457, 0.009900990099009898, 0.7913463566005702, 0.886561586124754, 0.8473446618836002, 0.9598600551480432, 0.960275004015634, 0.008695652173913044, 0.8509413663259817, 0.9633758421898344], "epoch": 10}
{"train_lr": 1.569052980450161e-05, "train_class_error": 1.590714130331056, "train_loss": 0.12876804271660075, "train_loss_ce": 0.02225186895173871, "train_loss_bbox": 0.048136563907100666, "train_loss_giou": 0.05837960979234055, "train_loss_ce_unscaled": 0.02225186895173871, "train_class_error_unscaled": 1.590714130331056, "train_loss_bbox_unscaled": 0.009627312778365487, "train_loss_giou_unscaled": 0.029189804896170277, "train_cardinality_error_unscaled": 0.06971331689272503, "test_class_error": 1.7817599514371276, "test_loss": 0.16948507172767974, "test_loss_ce": 0.027413772246908132, "test_loss_bbox": 0.05322883256861812, "test_loss_giou": 0.08884246679985205, "test_loss_ce_unscaled": 0.027413772246908132, "test_class_error_unscaled": 1.7817599514371276, "test_loss_bbox_unscaled": 0.01064576651795691, "test_loss_giou_unscaled": 0.04442123339992603, "test_cardinality_error_unscaled": 0.08527346637653406, "test_coco_eval_bbox": [0.8753314717334453, 0.9278196341194777, 0.9215733538503259, 0.00891089108910891, 0.7687555327755408, 0.8800370087212145, 0.8410183648337526, 0.9530036943834663, 0.9534427370562725, 0.008695652173913044, 0.833458848843464, 0.9569707946889183], "epoch": 11}
{"train_lr": 1.4121476824047974e-05, "train_class_error": 1.5585142161490444, "train_loss": 0.12716331703613631, "train_loss_ce": 0.021979947411448035, "train_loss_bbox": 0.04765463916150768, "train_loss_giou": 0.05752873046348921, "train_loss_ce_unscaled": 0.021979947411448035, "train_class_error_unscaled": 1.5585142161490444, "train_loss_bbox_unscaled": 0.009530927836734218, "train_loss_giou_unscaled": 0.028764365231744606, "train_cardinality_error_unscaled": 0.06937037607891491, "test_class_error": 1.8486457663999165, "test_loss": 0.15982253614507466, "test_loss_ce": 0.027169548600876343, "test_loss_bbox": 0.05080294518002584, "test_loss_giou": 0.08185004218772648, "test_loss_ce_unscaled": 0.027169548600876343, "test_class_error_unscaled": 1.8486457663999165, "test_loss_bbox_unscaled": 0.010160589048859896, "test_loss_giou_unscaled": 0.04092502109386324, "test_cardinality_error_unscaled": 0.08106984478935698, "test_coco_eval_bbox": [0.8854682870238878, 0.9287364685301267, 0.9226489442368048, 0.00891089108910891, 0.7903062972900327, 0.8895430994722243, 0.8420356588317182, 0.9553354393103819, 0.9558039299673394, 0.008695652173913044, 0.8548144163528779, 0.9589102979731063], "epoch": 12}
{"train_lr": 1.270932914164433e-05, "train_class_error": 1.5457187403292014, "train_loss": 0.12607752380550422, "train_loss_ce": 0.02158796500988648, "train_loss_bbox": 0.04730302390152113, "train_loss_giou": 0.05718653479616276, "train_loss_ce_unscaled": 0.02158796500988648, "train_class_error_unscaled": 1.5457187403292014, "train_loss_bbox_unscaled": 0.009460604782577986, "train_loss_giou_unscaled": 0.02859326739808138, "train_cardinality_error_unscaled": 0.06829531442663378, "test_class_error": 1.5583440142037335, "test_loss": 0.16072538630941888, "test_loss_ce": 0.027017741074032247, "test_loss_bbox": 0.05090437157125008, "test_loss_giou": 0.08280327360655806, "test_loss_ce_unscaled": 0.027017741074032247, "test_class_error_unscaled": 1.5583440142037335, "test_loss_bbox_unscaled": 0.010180874302789172, "test_loss_giou_unscaled": 0.04140163680327903, "test_cardinality_error_unscaled": 0.08802198818544062, "test_coco_eval_bbox": [0.8849754198024227, 0.9285226898610368, 0.922394179042273, 0.013861386138613862, 0.7925333474991838, 0.8889985298450824, 0.8422257321839697, 0.9549445842480055, 0.9553648872945335, 0.013043478260869565, 0.8519634211941904, 0.9585226792208159], "epoch": 13}
{"train_lr": 1.1438396227482714e-05, "train_class_error": 1.514246766340865, "train_loss": 0.12467484960353184, "train_loss_ce": 0.021477314219668676, "train_loss_bbox": 0.04667737447506255, "train_loss_giou": 0.05652016089648082, "train_loss_ce_unscaled": 0.021477314219668676, "train_class_error_unscaled": 1.514246766340865, "train_loss_bbox_unscaled": 0.00933547490069691, "train_loss_giou_unscaled": 0.02826008044824041, "train_cardinality_error_unscaled": 0.06785604192355117, "test_class_error": 1.6029157109905505, "test_loss": 0.15150517965780524, "test_loss_ce": 0.026962171132024402, "test_loss_bbox": 0.04921060040626188, "test_loss_giou": 0.07533240792219695, "test_loss_ce_unscaled": 0.026962171132024402, "test_class_error_unscaled": 1.6029157109905505, "test_loss_bbox_unscaled": 0.009842120074334569, "test_loss_giou_unscaled": 0.037666203961098474, "test_cardinality_error_unscaled": 0.08476533630073996, "test_coco_eval_bbox": [0.8888080413670795, 0.9279807746561993, 0.9221893640186115, 0.00495049504950495, 0.81968786288147, 0.8922846398432414, 0.850579924506077, 0.9639734031161321, 0.9643401643732933, 0.004347826086956522, 0.871866594943518, 0.9671096679164435], "epoch": 14}
{"train_lr": 1.0294556604732472e-05, "train_class_error": 1.5228733725965244, "train_loss": 0.12416537765840714, "train_loss_ce": 0.02150829590016355, "train_loss_bbox": 0.04642014142663279, "train_loss_giou": 0.05623694029435718, "train_loss_ce_unscaled": 0.02150829590016355, "train_class_error_unscaled": 1.5228733725965244, "train_loss_bbox_unscaled": 0.009284028284936114, "train_loss_giou_unscaled": 0.02811847014717859, "train_cardinality_error_unscaled": 0.06793696054254007, "test_class_error": 1.6204085212589103, "test_loss": 0.16037357707576053, "test_loss_ce": 0.026623577241944058, "test_loss_bbox": 0.05033624050994207, "test_loss_giou": 0.08341375935694695, "test_loss_ce_unscaled": 0.026623577241944058, "test_class_error_unscaled": 1.6204085212589103, "test_loss_bbox_unscaled": 0.010067248110351734, "test_loss_giou_unscaled": 0.041706879678473474, "test_cardinality_error_unscaled": 0.08371443089981566, "test_coco_eval_bbox": [0.8842995720147303, 0.9279761452868981, 0.9219832003669386, 0.009900990099009898, 0.7848355256886695, 0.8884876276574685, 0.8423127375916903, 0.9550878085345612, 0.9555027574021524, 0.008695652173913044, 0.846369015599785, 0.9588017647224649], "epoch": 15}
{"train_lr": 9.26510094426015e-06, "train_class_error": 1.496202636794009, "train_loss": 0.12239423222316179, "train_loss_ce": 0.021162111130469126, "train_loss_bbox": 0.04579105324877837, "train_loss_giou": 0.0554410679314088, "train_loss_ce_unscaled": 0.021162111130469126, "train_class_error_unscaled": 1.496202636794009, "train_loss_bbox_unscaled": 0.009158210650444693, "train_loss_giou_unscaled": 0.0277205339657044, "train_cardinality_error_unscaled": 0.06688501849568435, "test_class_error": 1.6542546722682776, "test_loss": 0.15259392175022224, "test_loss_ce": 0.026510047129301294, "test_loss_bbox": 0.048820275757585685, "test_loss_giou": 0.07726359871337954, "test_loss_ce_unscaled": 0.026510047129301294, "test_class_error_unscaled": 1.6542546722682776, "test_loss_bbox_unscaled": 0.009764055132415732, "test_loss_giou_unscaled": 0.03863179935668977, "test_cardinality_error_unscaled": 0.08437269032331898, "test_coco_eval_bbox": [0.8870029478908663, 0.9283410437534027, 0.9224944964599435, 0.013861386138613862, 0.8127146647427207, 0.8906164453695361, 0.8503885126090914, 0.9636293971194517, 0.9639171842372972, 0.013043478260869565, 0.8652501344809037, 0.9668348109830012], "epoch": 16}
{"train_lr": 8.338590849832772e-06, "train_class_error": 1.4877774032799735, "train_loss": 0.12148925450236597, "train_loss_ce": 0.02099729980141916, "train_loss_bbox": 0.04544046129227493, "train_loss_giou": 0.05505149345132999, "train_loss_ce_unscaled": 0.02099729980141916, "train_class_error_unscaled": 1.4877774032799735, "train_loss_bbox_unscaled": 0.009088092263582427, "train_loss_giou_unscaled": 0.027525746725664994, "train_cardinality_error_unscaled": 0.06693511097410604, "test_class_error": 1.6459686253921948, "test_loss": 0.1573252826144386, "test_loss_ce": 0.026303178877619425, "test_loss_bbox": 0.049779537340374186, "test_loss_giou": 0.08124256637174546, "test_loss_ce_unscaled": 0.026303178877619425, "test_class_error_unscaled": 1.6459686253921948, "test_loss_bbox_unscaled": 0.009955907466371199, "test_loss_giou_unscaled": 0.04062128318587273, "test_cardinality_error_unscaled": 0.08305617147631233, "test_coco_eval_bbox": [0.8842699577649333, 0.9283661996989695, 0.9223665275673816, 0.009900990099009898, 0.7933296418461324, 0.8886666938291653, 0.8366276034695079, 0.9557129089254163, 0.9560636076457676, 0.008695652173913044, 0.8481441635287789, 0.9593458404984073], "epoch": 17}
{"train_lr": 7.504731764848979e-06, "train_class_error": 1.425027911730671, "train_loss": 0.1201717619817479, "train_loss_ce": 0.020762221585494397, "train_loss_bbox": 0.0449953505424863, "train_loss_giou": 0.054414189868961474, "train_loss_ce_unscaled": 0.020762221585494397, "train_class_error_unscaled": 1.425027911730671, "train_loss_bbox_unscaled": 0.008999070108772867, "train_loss_giou_unscaled": 0.027207094934480737, "train_cardinality_error_unscaled": 0.06628776202219482, "test_class_error": 1.6712274783995094, "test_loss": 0.15694676997953666, "test_loss_ce": 0.026354744772550297, "test_loss_bbox": 0.04962734803309594, "test_loss_giou": 0.08096467707194635, "test_loss_ce_unscaled": 0.026354744772550297, "test_class_error_unscaled": 1.6712274783995094, "test_loss_bbox_unscaled": 0.009925469591183187, "test_loss_giou_unscaled": 0.040482338535973175, "test_cardinality_error_unscaled": 0.08187823356056953, "test_coco_eval_bbox": [0.8772926941592734, 0.9282981461541956, 0.9222854014048314, 0.00495049504950495, 0.7990252013810651, 0.8813155524370271, 0.8430141350323928, 0.955994003319591, 0.9562951758847781, 0.004347826086956522, 0.861000537923615, 0.9592542215205931], "epoch": 18}
{"train_lr": 6.754258588364106e-06, "train_class_error": 1.443744529601825, "train_loss": 0.11960525657940294, "train_loss_ce": 0.020718877778410666, "train_loss_bbox": 0.044689699729994106, "train_loss_giou": 0.054196679059521705, "train_loss_ce_unscaled": 0.020718877778410666, "train_class_error_unscaled": 1.443744529601825, "train_loss_bbox_unscaled": 0.00893793994030868, "train_loss_giou_unscaled": 0.027098339529760852, "train_cardinality_error_unscaled": 0.06669235511713933, "test_class_error": 1.5143335727260276, "test_loss": 0.15309923182256074, "test_loss_ce": 0.026248680750329354, "test_loss_bbox": 0.04870349164647432, "test_loss_giou": 0.07814705960592978, "test_loss_ce_unscaled": 0.026248680750329354, "test_class_error_unscaled": 1.5143335727260276, "test_loss_bbox_unscaled": 0.009740698332753768, "test_loss_giou_unscaled": 0.03907352980296489, "test_cardinality_error_unscaled": 0.08551598300624581, "test_coco_eval_bbox": [0.8857898769017577, 0.928234131773183, 0.9222875589049375, 0.009900990099009898, 0.8106415122866873, 0.889626851042255, 0.8498892354232478, 0.9633964903357072, 0.9636615221930718, 0.008695652173913044, 0.866325981710597, 0.9665388112085246], "epoch": 19}
